Tempestry aRt
…
Plot annual data

The annual data is shown as deviations from the mean of all year’s average temperature. Here too, the years which end up being included matter. So if/when the min_year parameter is adjusted above, this needs to get re-run.

The extreme years are labeled, but you may be adjusting the year threshold. You also may be needing to remove labels and nudge them up or down depending on what the data looks like.

# A tibble: 4 × 2
  temp_category     n
  <fct>         <int>
1 extreme cold      6
2 cold             48
3 hot              43
4 extreme hot       6

# A tibble: 103 × 6
    Date  temp longterm_avg temp_anomaly temp_category color  
   <dbl> <dbl>        <dbl>        <dbl> <fct>         <chr>  
 1  1950  40.4         44.2        -3.75 extreme cold  #08519C
 2  1951  40.5         44.2        -3.65 extreme cold  #08519C
 3  1972  40.8         44.2        -3.35 extreme cold  #08519C
 4  1929  41           44.2        -3.15 extreme cold  #08519C
 5  1924  41.1         44.2        -3.05 extreme cold  #08519C
 6  2014  41.3         44.2        -2.85 extreme cold  #08519C
 7  1979  41.4         44.2        -2.75 cold          #2171B5
 8  1996  41.5         44.2        -2.65 cold          #2474B6
 9  1926  41.6         44.2        -2.55 cold          #2878B8
10  1965  41.7         44.2        -2.45 cold          #2B7BBA
# … with 93 more rows
…
